{
  "collection": [{ "name": "Raja kumaran", "image":"RAJAKUMARAN", "amount": 1000, "mobile": "7402458544", "status": "paid" }
  ,{ "name": "Manthira moorthy", "image":"MOORTHYM", "amount": 2000, "mobile": "9750385855", "status": "paid" }
  ,{ "name": "Anandraj P", "image":"ANANDMASS", "amount": 1000, "mobile": "9345696717", "status": "paid" }
  ,{ "name": "Ramraj P", "image":"RAMRAJP", "amount": 1000, "mobile": "7604808288", "status": "paid" }
  ,{ "name": "Gopi", "image":"GOPINATH", "amount": 500, "mobile": "9360031437", "status": "paid" }
  ,{ "name": "Baskar Selvan", "image":"BASKARSELVAM", "amount": 1000, "mobile": "6382510195", "status": "paid" }
  ,{ "name": "Ramu", "image":"ERAM", "amount": 500, "mobile": "6380683086", "status": "paid" }
  ,{ "name": "Parthiban", "image":"PARTHIBAN", "amount": 400, "mobile": "8667349537", "status": "paid" }
  ,{ "name": "Gunam M", "image":"GUNAMM", "amount": 1500, "mobile": "9994182070", "status": "paid" }
  ,{ "name": "Ramaraj M", "image":"RAMARAJM", "amount": 4000, "mobile": "9486559665", "status": "paid" }
  ,{ "name": "Selvaraj J", "image":"SELVAJ", "amount": 1000, "mobile": "6369202386", "status": "paid" }
  ,{ "name": "Manikandan M", "image":"MANIKANDANM", "amount": 1100, "mobile": "6379585499", "status": "paid" }
  ,{ "name": "Muthuraj M", "image":"MUTHURAJM", "amount": 1200, "mobile": "7695819152", "status": "paid" }
  ,{ "name": "MaxVel M", "image":"MAXVEL", "amount": 500, "mobile": "6380923425", "status": "paid" }
  ,{ "name": "Velsamy T", "image":"VELSAMYT", "amount": 4500, "mobile": "9698960968", "status": "paid" }
  ,{ "name": "Kannan S", "image":"SKANNAN", "amount": 500, "mobile": "8428588484", "status": "paid" }
  ,{ "name": "Jegatheesh k", "image":"JEGATHEESHK", "amount": 500, "mobile": "9360217454", "status": "paid" }
  ,{ "name": "Patturaja k", "image":"PATTURAJAK", "amount": 1000, "mobile": "6369191299", "status": "paid" }
  ,{ "name": "Ramesh k", "image":"RAMESHK", "amount": 1500, "mobile": "9698352262", "status": "paid" }
  ,{ "name": "Rajasekar", "image":"RAJASEKAR", "amount": 1000, "mobile": "9750015718", "status": "paid" }
  ,{ "name": "Paulraj", "image":"PAULRAJK", "amount": 500, "mobile": "8973740772", "status": "paid" }
  ,{ "name": "Alaguraja ", "image":"ALAGURAJA", "amount": 500, "mobile": "8760591046", "status": "paid" }
  ,{ "name": "Senthur Siva ", "image":"SENTHURSIVA", "amount": 1500, "mobile": "8072509671", "status": "paid" }
  ,{ "name": "Vaikundaraj R ", "image":"VAIKUNDARAJR", "amount": 2000, "mobile": "9840510278", "status": "paid" }
  ,{ "name": "Ganapathy", "image":"GANAPATHYM", "amount": 500, "mobile": "NA", "status": "paid" }
  ,{ "name": "Sakthivel", "image":"SAKTHIVEL", "amount": 2500, "mobile": "8189877498", "status": "paid" }
  ,{ "name": "Narayanan", "image":"NARAYANAN", "amount": 2000, "mobile": "NA", "status": "paid" }
  ,{ "name": "Ajith Kumar", "image":"AJITHM", "amount": 1000, "mobile": "9360296204", "status": "paid" }
  ,{ "name": "Valli kumar", "image":"VALLIKUMAR", "amount": 500, "mobile": "9444538074", "status": "paid" }
  ,{ "name": "Anandaraj V", "image":"ANANDRAJV", "amount": 1500, "mobile": "NA", "status": "paid" }
  ,{ "name": "Esakki muthu", "image":"ESAKKIMUTHU", "amount": 3000, "mobile": "NA", "status": "paid" }
  ,{ "name": "SolaiRaja", "image":"SOLAIRAJA", "amount": 1000, "mobile": "7397507201", "status": "paid" }
  ,{ "name": "Arumugaraj", "image":"ARUMUGARAJ", "amount": 700, "mobile": "NA", "status": "paid" }
  ,{ "name": "Praveen L", "image":"PRAVEENL", "amount": 600, "mobile": "6382244896", "status": "paid" }
  ,{ "name": "Rajapandi", "image":"RAJAPANDI", "amount": 2000, "mobile": "9710249991", "status": "paid" }
  ,{ "name": "Thangasamy T", "image":"THANGASAMYT", "amount": 6000, "mobile": "9965853712", "status": "paid" }
  ,{ "name": "Balaganesh", "image":"BALAGANESH", "amount": 500, "mobile": "9498807238", "status": "paid" }
  ,{ "name": "Sundar", "image":"SUNDAR", "amount": 500, "mobile": "NA", "status": "paid" }
  ,{ "name": "Anandakumar", "image":"ANANDAKUMAR", "amount": 1500, "mobile": "9865707652", "status": "paid" }
  ,{ "name": "Sermaraj", "image":"SERMARAJ", "amount": 1000, "mobile": "NA", "status": "paid" }
  ,{ "name": "Vijay", "image":"VIJAY", "amount": 2000, "mobile": "9659819982", "status": "paid" }
  ,{ "name": "Mannaraja", "image":"MANNARAJA", "amount": 1200, "mobile": "NA", "status": "paid" }
  ,{ "name": "Kathiresan", "image":"KATHIRESAN", "amount": 500, "mobile": "NA", "status": "paid" }
  ,{ "name": "Suthakar V", "image":"SUTHAKARV", "amount": 1500, "mobile": "8778435303", "status": "paid" }
  ,{ "name": "Tirumal", "image":"THIRUMAL", "amount": 200, "mobile": "NA", "status": "paid" }
  ,{ "name": "Yogendra kumar", "image":"YOGENDRAN", "amount": 1000, "mobile": "NA", "status": "paid" }
  ,{ "name": "Sugan", "image":"SUGAN", "amount": 500, "mobile": "NA", "status": "paid" }
  ,{ "name": "Saravanan S", "image":"SARAVANANS", "amount": 1000, "mobile": "NA", "status": "paid" }
  ,{ "name": "Duraisamy", "image":"DURAISAMY", "amount": 200, "mobile": "NA", "status": "paid" }
  ,{ "name": "Saravanan G", "image":"SARAVANANG", "amount": 1500, "mobile": "6374154568", "status": "paid" }
  ,{ "name": "Krishnakumar", "image":"KRISHNAKUMAR", "amount": 1000, "mobile": "NA", "status": "paid" }
  ,{ "name": "Iykoderajan", "image":"IYKODERAJAN", "amount": 1000, "mobile": "NA", "status": "paid" }
  ,{ "name": "Murugan", "image":"MURUGAN", "amount": 500, "mobile": "NA", "status": "paid" }
  ,{ "name": "Bharath", "image":"BHARATH", "amount": 1000, "mobile": "8838338922", "status": "paid" }
  ,{ "name": "Ganesh M", "image":"GANESHM", "amount": 1000, "mobile": "7708167945", "status": "paid" }
  ,{ "name": "Murugan s", "image":"MURUGANS", "amount": 500, "mobile": "NA", "status": "paid" }
  ,{ "name": "Kannan N", "image":"KANNANN", "amount": 1100, "mobile": "9600938621", "status": "paid" }
  ,{ "name": "Mutheeswaran", "image":"MUTHEESWARAN", "amount": 2000, "mobile": "9551951395", "status": "paid" }
  ,{ "name": "Manthri kumar", "image":"MATHRIKUMAR", "amount": 1000, "mobile": "NA", "status": "paid" }
  ,{ "name": "JPR Promotors", "image":"JPRPROMO", "amount": 1100, "mobile": "NA", "status": "paid" }
  ,{ "name": "Rajesh M", "image":"RAJESHM", "amount": 100, "mobile": "NA", "status": "paid" }
  ,{ "name": "Sakthivel", "image":"SAKTHIVEL", "amount": 200, "mobile": "NA", "status": "paid" }
  ,{ "name": "Velladurai", "image":"VELLADURAI", "amount": 1000, "mobile": "NA", "status": "paid" }
  ,{ "name": "Suresh", "image":"SURESH", "amount": 500, "mobile": "NA", "status": "paid" }
  ,{ "name": "Maniraj", "image":"MANIRAJ", "amount": 200, "mobile": "NA", "status": "paid" }
  ,{ "name": "Saravanakumar", "image":"SARAVANKUMAR", "amount": 500, "mobile": "NA", "status": "paid" }
  ,{ "name": "Prabhu", "image":"PRABHU", "amount": 500, "mobile": "NA", "status": "paid" }
  ,{ "name": "Kannan Banthal", "image":"KANNANBANDHAL", "amount": 100, "mobile": "NA", "status": "paid" }
  ,{ "name": "Karthikesan", "image":"KARTHIKESAN", "amount": 200, "mobile": "NA", "status": "paid" }
  ,{ "name": "Annapoornam family", "image":"ANNAPOORNAM", "amount": 500, "mobile": "NA", "status": "paid" }
  ,{ "name": "Suba Ramesh", "image":"SUBARAMESH", "amount": 200, "mobile": "NA", "status": "paid" }
  ,{ "name": "Kosal Ram", "image":"KOSALRAM", "amount": 500, "mobile": "8524934647", "status": "paid" }

],
  
  "inHand": "₹525",
  "expenses": "₹78,775",
  "Total": "₹79,300",
  "expenseData": [
    {
      "name": "ஒளி அலங்காரம் - Serial",
      "totalAmount": 31000,
      "advance": false,
      "note": "Generator Rent,workers salary,EB "
      
    },{
      "name": "செண்டை மேளம்",
      "totalAmount": 20000,
      "advance": false,
      "note": "NA"
    },{
      "name": "Sunday - திரைப்படம்",
      "totalAmount":3500,
      "advance": false,
      "note": "NA"
    },{
      "name": "Monday - விளக்கு பூஜை",
      "totalAmount": 1600,
      "advance": false,
      "note": "NA"
    },{
      "name": "இதர செலவுகள்",
      "totalAmount": 2700,
      "advance": false,
      "note": "Color Smokes,Shop bill and Cool drinks for chendai melam groups"
    },{
      "name": "விளையாட்டுப் போட்டி - பரிசு",
      "totalAmount": 17905,
      "advance": false,
      "note": "NA"
    },{
      "name": "விளையாட்டுப் போட்டி - பொருள்கள்",
      "totalAmount": 2070,
      "advance": false,
      "note": "NA"
    }
    
  ],
  "whatsapp": "https://wa.me/+91",
  "calling":"tel:+91"
}
