{
  "collection": [
    {
      "name": "Remaining amount from last year-2023",
      "image": "2023",
      "amount": 8665,
      "mobile": "NA",
      "status": "Paid"
    },

    { "name": "Ramu E", "image": "ERAM", "amount": 500, "mobile": "6380683086", "status": "Paid" },

    { "name": "Manthira moorthy", "image": "MOORTHYM", "amount": 2500, "mobile": "9750385855", "status": "Paid" },

    { "name": "Vel Murugan I", "image": "VELMURUGANI", "amount": 5500, "mobile": "9360089646", "status": "Paid" },

    { "name": "Ramraj P", "image": "RAMRAJP", "amount": 4000, "mobile": "7604808288", "status": "Paid" },

    { "name": "Sunil", "image": "SUNIL", "amount": 3000, "mobile": "9360175201", "status": "Paid" },

    { "name": "Parthiban S", "image": "PARTHIBAN", "amount": 1500, "mobile": "8667349537", "status": "Paid" },

    { "name": "Balaganesh", "image": "BALAGANESH", "amount": 2000, "mobile": "9498807238", "status": "Paid" },

    { "name": "Mutheeswaran", "image": "MUTHEESWARAN", "amount": 2000, "mobile": "9551951395", "status": "Paid" },

    { "name": "Ragavan", "image": "RAGAVAN", "amount": 1000, "mobile": "9159494106", "status": "Paid" },

    { "name": "Raja kumaran M", "image": "RAJAKUMARAN", "amount": 5000, "mobile": "7402458544", "status": "Paid" },

    { "name": "Gopi K", "image": "GOPINATH", "amount": 1200, "mobile": "9360031437", "status": "Paid" },

    { "name": "Thiru Balan A", "image": "THIRUBALAN", "amount": 1000, "mobile": "7358881232", "status": "Paid" },

    { "name": "Vignesh", "image": "VICKY", "amount": 500, "mobile": "9677891102", "status": "Paid" },

    { "name": "Donation", "image": "T", "amount": 2000, "mobile": "", "status": "Paid" },

    { "name": "Vel kumaran M", "image": "VELKUMARANM", "amount": 4000, "mobile": "9591192161", "status": "Paid" },

    { "name": "Satheesh kumaran M", "image": "SATHEESH", "amount": 4000, "mobile": "8012939010", "status": "Paid" },

    { "name": "Ramaraj M", "image": "RAMARAJM", "amount": 3000, "mobile": "9486559665", "status": "Paid" },

    { "name": "Gunam M", "image": "GUNAMM", "amount": 1500, "mobile": "9994182070", "status": "Paid" },

    { "name": "Anandraj P", "image": "ANANDMASS", "amount": 4000, "mobile": "9345696717", "status": "Paid" },

    { "name": "Baskar Selvan", "image": "BASKARSELVAM", "amount": 1500, "mobile": "6382510195", "status": "Paid" },

    { "name": "Selvaraj J", "image": "SELVAJ", "amount": 2000, "mobile": "6369202386", "status": "Paid" },

    { "name": "Manikandan M", "image": "MANIKANDANM", "amount": 1100, "mobile": "6379585499", "status": "Paid" },

    { "name": "Vel M", "image": "MAXVEL", "amount": 500, "mobile": "6380923425", "status": "Paid" },

    { "name": "Velsamy T", "image": "VELSAMYT", "amount": 3000, "mobile": "9698960968", "status": "Unpaid" },

    { "name": "Kannan S", "image": "SKANNAN", "amount": 1000, "mobile": "8428588484", "status": "Paid" },

    { "name": "Jegatheesh k", "image": "JEGATHEESHK", "amount": 1100, "mobile": "9360217454", "status": "Paid" },

    { "name": "Ramesh k", "image": "RAMESHK", "amount": 2000, "mobile": "9698352262", "status": "Paid" },

    { "name": "Rajasekar", "image": "RAJASEKAR", "amount": 1000, "mobile": "9750015718", "status": "Paid" },

    { "name": "Alaguraja S", "image": "ALAGURAJA", "amount": 500, "mobile": "8760591046", "status": "Paid" },

    { "name": "Senthur Siva", "image": "SENTHURSIVA", "amount": 2000, "mobile": "8072509671", "status": "Unpaid" },

    { "name": "Vaikundaraj R ", "image": "VAIKUNDARAJR", "amount": 1000, "mobile": "9840510278", "status": "Paid" },

    { "name": "Ajith Kumar", "image": "AJITHM", "amount": 1500, "mobile": "9360296204", "status": "Paid" },

    { "name": "Sasi Kumar V", "image": "SASIKUMAR", "amount": 2000, "mobile": "9444538074", "status": "Paid" },

    { "name": "Esakki muthu", "image": "ESAKKIMUTHU", "amount": 3000, "mobile": "8190980253", "status": "Paid" },

    { "name": "SolaiRaja", "image": "SOLAIRAJA", "amount": 1500, "mobile": "7397507201", "status": "Paid" },

    { "name": "Praveen L", "image": "PRAVEENL", "amount": 1000, "mobile": "6382244896", "status": "Paid" },

    { "name": "Rajapandi", "image": "RAJAPANDI", "amount": 2100, "mobile": "9710249991", "status": "Paid" },

    { "name": "Anandakumar G", "image": "ANANDAKUMAR", "amount": 1000, "mobile": "9865707652", "status": "Unpaid" },

    { "name": "Mannaraja", "image": "MANNARAJA", "amount": 500, "mobile": "9842475462", "status": "Paid" },

    { "name": "Suthakar V", "image": "SUTHAKARV", "amount": 1000, "mobile": "8778435303", "status": "Paid" },

    { "name": "Saravanan G", "image": "SARAVANANG", "amount": 2000, "mobile": "6374154568", "status": "Paid" },

    { "name": "Iykoderajan", "image": "IYKODE", "amount": 1200, "mobile": "NA", "status": "Paid" },

    { "name": "Bharath", "image": "BHARATH", "amount": 2000, "mobile": "8838338922", "status": "Paid" },

    { "name": "Ganesh M", "image": "GANESHM", "amount": 1000, "mobile": "7708167945", "status": "Paid" },

    { "name": "Kannan N", "image": "KANNANN", "amount": 1100, "mobile": "9600938621", "status": "Paid" },

    { "name": "JPR Promotors", "image": "JPRPROMO", "amount": 3100, "mobile": "9942787379", "status": "Paid" },

    { "name": "Sakthivel", "image": "SAKTHIVEL", "amount": 2000, "mobile": "8189877498", "status": "Paid" },

    { "name": "Saravanakumar", "image": "SARAVANAKUMAR", "amount": 2000, "mobile": "9002423", "status": "Paid" },

    { "name": "Dinesh kumar", "image": "DINESH", "amount": 500, "mobile": "9976111615", "status": "Paid" },

    { "name": "Nagaraj", "image": "NAGARAJM", "amount": 1100, "mobile": "9342491279", "status": "Paid" },

    { "name": "Ganapathy", "image": "GANAPATHYM", "amount": 500, "mobile": "9003894697", "status": "Unpaid" },

    { "name": "PaulRaj", "image": "PAULRAJK", "amount": 500, "mobile": "8526692855", "status": "Paid" },

    { "name": "Arunachalam C", "image": "ARUNAC", "amount": 500, "mobile": "9342713081", "status": "Paid" },

    { "name": "Maniraj", "image": "MANIV", "amount": 1000, "mobile": "9080477363", "status": "Paid" },

    { "name": "Jeganathan", "image": "JEGAN", "amount": 500, "mobile": "7092413066", "status": "Paid" },

    { "name": "Kathiresan P", "image": "KATHIRESAN", "amount": 500, "mobile": "NA", "status": "Paid" },

    { "name": "Muthu Kutty", "image": "KUTTY", "amount": 500, "mobile": "9025669298", "status": "Paid" },

    { "name": "Thirumal", "image": "THIRUMAL", "amount": 500, "mobile": "NA", "status": "Paid" },

    { "name": "Patturaja", "image": "PATTURAJAK", "amount": 500, "mobile": " 6369191299", "status": "Paid" },

    { "name": "Ravi K", "image": "RAVIK", "amount": 1000, "mobile": "8973740772", "status": "Paid" },

    { "name": "Balasubramaniyan", "image": "BALAK", "amount": 200, "mobile": "NA", "status": "Paid" },

    { "name": "குலுக்கல் Income (358 Tokens)", "image": "KULUKKAL", "amount": 35800, "mobile": "NA", "status": "Paid" },

    { "name": "Narayanan", "image": "NARAYANAN", "amount": 2000, "mobile": "9042475203", "status": "Paid" },

    { "name": "SudalaiMani", "image": "Sudalai", "amount": 200, "mobile": "NA", "status": "Paid" }
  ],
  "expenseData": [
    {
      "name": "ஒளி அலங்காரம் - Serial",
      "totalAmount": 40000,
      "advance": false,
      "note": "Generator Rent,workers salary"
    },
    {
      "name": "Electricity bill for serial",
      "totalAmount": 1500,
      "advance": false,
      "note": "EB"
    },
    {
      "name": "செண்டை மேளம்",
      "totalAmount": 30500,
      "advance": false,
      "note": ""
    },
    {
      "name": "பட்டாசுகள்",
      "totalAmount": 5800,
      "advance": false,
      "note": ""
    },
    {
      "name": "Ice cream, popcorn stall",
      "totalAmount": 13000,
      "advance": false,
      "note": ""
    },
    {
      "name": "குலுக்கல் செலவுகள்",
      "totalAmount": 34220,
      "advance": false,
      "note": ""
    },
    {
      "name": "இதர செலவுகள்",
      "totalAmount": 800,
      "advance": false,
      "note": "Cool drinks for chendai melam groups, Auto rent"
    },
    {
      "name": "Thursday - திரைப்படம்",
      "totalAmount": 4000,
      "advance": false,
      "note": ""
    }
  ],
  "calling": "tel:+91",
  "whatsapp": "https://wa.me/+91"
}
